<?xml version="1.0" standalone="no"?>
<!DOCTYPE svg PUBLIC "-//W3C//DTD SVG 1.1//EN" "http://www.w3.org/Graphics/SVG/1.1/DTD/svg11.dtd">
<svg xmlns="http://www.w3.org/2000/svg">
<metadata>Generated by Fontastic.me</metadata>
<defs>
<font id="mary-jane" horiz-adv-x="512">
<font-face font-family="mary-jane" units-per-em="512" ascent="480" descent="-32"/>
<missing-glyph horiz-adv-x="512" />

<glyph glyph-name="facebook" unicode="&#97;" d="M384 509l0-76-45 0c-17 0-28-3-33-10-6-7-9-17-9-31l0-54 84 0-11-85-73 0 0-216-87 0 0 216-73 0 0 85 73 0 0 62c0 36 10 63 29 83 20 19 47 29 80 29 28 0 49-1 65-3z"/>
<glyph glyph-name="twitter" unicode="&#98;" d="M481 395c-13-18-28-34-46-47 0-3 0-7 0-12 0-25-3-50-11-74-7-25-18-49-33-71-14-23-32-43-52-61-21-17-45-31-74-41-29-11-60-16-92-16-52 0-99 14-142 42 7-1 14-2 22-2 43 0 81 14 115 40-20 0-38 6-54 18-16 12-27 27-33 46 7-1 13-2 18-2 8 0 16 1 24 4-21 4-39 15-53 31-14 17-21 37-21 59l0 1c13-7 27-11 42-11-13 8-23 19-30 32-8 14-11 29-11 44 0 17 4 33 12 47 23-28 51-51 84-68 33-17 69-27 107-29-2 8-3 15-3 22 0 25 9 47 27 65 18 18 40 27 66 27 26 0 49-10 67-29 21 4 40 11 59 22-7-22-21-39-41-51 18 2 35 7 53 14z"/>
<glyph glyph-name="envelope" unicode="&#99;" d="M512 309l0-227c0-12-4-23-13-32-9-9-20-13-33-13l-420 0c-13 0-24 4-33 13-9 9-13 20-13 32l0 227c8-9 18-17 29-25 69-47 116-79 142-98 11-8 20-15 26-19 7-4 16-9 27-14 12-4 22-7 32-7l0 0c10 0 20 3 32 7 11 5 20 10 27 14 6 4 15 11 26 19 33 23 80 56 142 98 11 8 21 16 29 25z m0 84c0-15-5-29-14-43-9-14-21-25-35-35-71-50-116-81-134-93-1-1-6-4-12-9-6-4-11-8-15-11-4-2-9-5-15-9-6-3-11-6-16-8-6-1-10-2-15-2l0 0c-5 0-9 1-15 2-5 2-10 5-16 8-6 4-11 7-15 9-4 3-9 7-15 11-6 5-11 8-12 9-18 12-43 30-75 52-33 23-52 36-59 41-12 8-23 19-33 33-11 14-16 27-16 39 0 15 4 27 12 37 8 10 19 15 34 15l420 0c13 0 23-5 32-14 9-9 14-19 14-32z"/>
<glyph glyph-name="pinterest" unicode="&#100;" d="M73 341c0 21 4 40 11 59 7 18 17 34 29 47 13 14 27 25 44 35 16 10 34 18 53 23 19 5 38 7 57 7 31 0 59-6 84-19 26-13 47-31 64-55 16-24 24-52 24-82 0-19-2-36-6-54-3-18-9-34-17-51-8-16-17-30-28-42-12-13-25-22-42-30-16-7-34-11-54-11-13 0-26 3-38 9-13 7-22 15-28 26-2-8-4-19-8-33-3-14-5-23-6-27-1-4-3-11-6-20-3-9-6-16-8-20-2-4-5-10-9-18-4-8-8-15-13-22-5-7-11-15-18-25l-4-1-2 2c-3 30-5 48-5 54 0 18 2 37 7 59 4 22 10 49 19 82 8 33 13 53 14 58-6 13-9 29-9 49 0 15 5 30 15 44 10 14 23 21 38 21 11 0 21-4 27-12 6-7 10-17 10-29 0-12-4-31-13-54-8-24-12-42-12-54 0-12 4-22 12-30 9-8 19-12 32-12 10 0 20 3 29 8 9 4 16 11 22 19 6 8 11 17 16 27 5 10 8 21 11 32 3 11 4 21 6 31 1 10 2 20 2 29 0 33-11 58-32 77-21 18-48 27-81 27-38 0-70-12-96-37-25-24-38-56-38-93 0-9 1-17 4-25 2-8 5-14 7-18 3-5 6-9 8-13 2-4 4-7 4-9 0-5-2-12-5-21-3-8-6-13-10-13-1 0-2 1-5 1-10 3-18 8-26 16-8 8-13 17-17 27-5 10-8 21-10 31-2 10-3 21-3 30z"/>
</font></defs></svg>
